{
  "wordForGazTest" : "газлайтинг",
  "headerGaz" : "Газлайтинг",
  "negHeaderGaz" : "Газовый свет",
  "urlDesktop" : "www.wikipedia.org",
  "toDesktopText" : "Настольная версия",
  "logoutText" : "Выйти",
  "loginJson" : "Blikeyz",
  "passwordJson" : "Qaz12345",
  "wrongLoginJson" : "WrongLogin",
  "wrongPasswordJson" : "WrongPassTest0101",
  "wordForJsTest" : "ПРОВЕРКА JS."
}